module gitlab.com/snake-security/jaeles

go 1.20

require (
	github.com/Jeffail/gabs/v2 v2.7.0
	github.com/Masterminds/sprig/v3 v3.2.3
	github.com/PuerkitoBio/goquery v1.8.1
	github.com/appleboy/gin-jwt/v2 v2.9.1
	github.com/chromedp/cdproto v0.0.0-20230816033919-17ee49f3eb4f
	github.com/chromedp/chromedp v0.9.2
	github.com/davecgh/go-spew v1.1.1
	github.com/fatih/color v1.15.0
	github.com/gin-contrib/cors v1.4.0
	github.com/gin-contrib/static v0.0.1
	github.com/gin-gonic/gin v1.9.1
	github.com/go-resty/resty/v2 v2.7.0
	github.com/google/uuid v1.3.0
	github.com/gorilla/websocket v1.5.0
	github.com/jinzhu/copier v0.4.0
	github.com/jinzhu/gorm v1.9.16
	github.com/json-iterator/go v1.1.12
	github.com/lixiangzhong/dnsutil v1.4.0
	github.com/logrusorgru/aurora/v3 v3.0.0
	github.com/mitchellh/go-homedir v1.1.0
	github.com/panjf2000/ants v1.3.0
	github.com/robertkrimen/otto v0.2.1
	github.com/sirupsen/logrus v1.9.3
	github.com/spf13/cast v1.5.1
	github.com/spf13/cobra v1.7.0
	github.com/spf13/viper v1.16.0
	github.com/thoas/go-funk v0.9.3
	github.com/x-cray/logrus-prefixed-formatter v0.5.2
	gopkg.in/src-d/go-git.v4 v4.13.1
	gopkg.in/yaml.v2 v2.4.0
)

require (
	github.com/Masterminds/goutils v1.1.1 // indirect
	github.com/Masterminds/semver/v3 v3.2.0 // indirect
	github.com/andybalholm/cascadia v1.3.1 // indirect
	github.com/bytedance/sonic v1.9.1 // indirect
	github.com/chenzhuoyu/base64x v0.0.0-20221115062448-fe3a3abad311 // indirect
	github.com/chromedp/sysutil v1.0.0 // indirect
	github.com/emirpasic/gods v1.12.0 // indirect
	github.com/fsnotify/fsnotify v1.6.0 // indirect
	github.com/gabriel-vasile/mimetype v1.4.2 // indirect
	github.com/gin-contrib/sse v0.1.0 // indirect
	github.com/go-playground/locales v0.14.1 // indirect
	github.com/go-playground/universal-translator v0.18.1 // indirect
	github.com/go-playground/validator/v10 v10.14.0 // indirect
	github.com/gobwas/httphead v0.1.0 // indirect
	github.com/gobwas/pool v0.2.1 // indirect
	github.com/gobwas/ws v1.2.1 // indirect
	github.com/goccy/go-json v0.10.2 // indirect
	github.com/golang-jwt/jwt/v4 v4.4.3 // indirect
	github.com/hashicorp/hcl v1.0.0 // indirect
	github.com/huandu/xstrings v1.3.3 // indirect
	github.com/imdario/mergo v0.3.11 // indirect
	github.com/inconshreveable/mousetrap v1.1.0 // indirect
	github.com/jbenet/go-context v0.0.0-20150711004518-d14ea06fba99 // indirect
	github.com/jinzhu/inflection v1.0.0 // indirect
	github.com/josharian/intern v1.0.0 // indirect
	github.com/kevinburke/ssh_config v0.0.0-20190725054713-01f96b0aa0cd // indirect
	github.com/klauspost/cpuid/v2 v2.2.4 // indirect
	github.com/leodido/go-urn v1.2.4 // indirect
	github.com/magiconair/properties v1.8.7 // indirect
	github.com/mailru/easyjson v0.7.7 // indirect
	github.com/mattn/go-colorable v0.1.13 // indirect
	github.com/mattn/go-isatty v0.0.19 // indirect
	github.com/mattn/go-sqlite3 v1.14.0 // indirect
	github.com/mgutz/ansi v0.0.0-20200706080929-d51e80ef957d // indirect
	github.com/miekg/dns v1.1.40 // indirect
	github.com/mitchellh/copystructure v1.0.0 // indirect
	github.com/mitchellh/mapstructure v1.5.0 // indirect
	github.com/mitchellh/reflectwalk v1.0.0 // indirect
	github.com/modern-go/concurrent v0.0.0-20180306012644-bacd9c7ef1dd // indirect
	github.com/modern-go/reflect2 v1.0.2 // indirect
	github.com/onsi/ginkgo v1.16.5 // indirect
	github.com/onsi/gomega v1.27.10 // indirect
	github.com/pelletier/go-toml/v2 v2.0.8 // indirect
	github.com/sergi/go-diff v1.0.0 // indirect
	github.com/shopspring/decimal v1.2.0 // indirect
	github.com/spf13/afero v1.9.5 // indirect
	github.com/spf13/jwalterweatherman v1.1.0 // indirect
	github.com/spf13/pflag v1.0.5 // indirect
	github.com/src-d/gcfg v1.4.0 // indirect
	github.com/subosito/gotenv v1.4.2 // indirect
	github.com/twitchyliquid64/golang-asm v0.15.1 // indirect
	github.com/ugorji/go/codec v1.2.11 // indirect
	github.com/xanzy/ssh-agent v0.2.1 // indirect
	golang.org/x/arch v0.3.0 // indirect
	golang.org/x/crypto v0.11.0 // indirect
	golang.org/x/net v0.12.0 // indirect
	golang.org/x/sys v0.10.0 // indirect
	golang.org/x/term v0.10.0 // indirect
	golang.org/x/text v0.11.0 // indirect
	google.golang.org/protobuf v1.30.0 // indirect
	gopkg.in/ini.v1 v1.67.0 // indirect
	gopkg.in/sourcemap.v1 v1.0.5 // indirect
	gopkg.in/src-d/go-billy.v4 v4.3.2 // indirect
	gopkg.in/warnings.v0 v0.1.2 // indirect
	gopkg.in/yaml.v3 v3.0.1 // indirect
)
